(kicad_sch (version 20230121) (generator eeschema)

  (uuid aeb3d45f-1961-4cf4-af9e-71eeec0960f8)

  (paper "A4")

  (lib_symbols
    (symbol "Connector_Generic:Conn_01x04" (pin_names (offset 1.016) hide) (in_bom yes) (on_board yes)
      (property "Reference" "J" (at 0 5.08 0)
        (effects (font (size 1.27 1.27)))
      )
      (property "Value" "Conn_01x04" (at 0 -7.62 0)
        (effects (font (size 1.27 1.27)))
      )
      (property "Footprint" "" (at 0 0 0)
        (effects (font (size 1.27 1.27)) hide)
      )
      (property "Datasheet" "~" (at 0 0 0)
        (effects (font (size 1.27 1.27)) hide)
      )
      (property "ki_keywords" "connector" (at 0 0 0)
        (effects (font (size 1.27 1.27)) hide)
      )
      (property "ki_description" "Generic connector, single row, 01x04, script generated (kicad-library-utils/schlib/autogen/connector/)" (at 0 0 0)
        (effects (font (size 1.27 1.27)) hide)
      )
      (property "ki_fp_filters" "Connector*:*_1x??_*" (at 0 0 0)
        (effects (font (size 1.27 1.27)) hide)
      )
      (symbol "Conn_01x04_1_1"
        (rectangle (start -1.27 -4.953) (end 0 -5.207)
          (stroke (width 0.1524) (type default))
          (fill (type none))
        )
        (rectangle (start -1.27 -2.413) (end 0 -2.667)
          (stroke (width 0.1524) (type default))
          (fill (type none))
        )
        (rectangle (start -1.27 0.127) (end 0 -0.127)
          (stroke (width 0.1524) (type default))
          (fill (type none))
        )
        (rectangle (start -1.27 2.667) (end 0 2.413)
          (stroke (width 0.1524) (type default))
          (fill (type none))
        )
        (rectangle (start -1.27 3.81) (end 1.27 -6.35)
          (stroke (width 0.254) (type default))
          (fill (type background))
        )
        (pin passive line (at -5.08 2.54 0) (length 3.81)
          (name "Pin_1" (effects (font (size 1.27 1.27))))
          (number "1" (effects (font (size 1.27 1.27))))
        )
        (pin passive line (at -5.08 0 0) (length 3.81)
          (name "Pin_2" (effects (font (size 1.27 1.27))))
          (number "2" (effects (font (size 1.27 1.27))))
        )
        (pin passive line (at -5.08 -2.54 0) (length 3.81)
          (name "Pin_3" (effects (font (size 1.27 1.27))))
          (number "3" (effects (font (size 1.27 1.27))))
        )
        (pin passive line (at -5.08 -5.08 0) (length 3.81)
          (name "Pin_4" (effects (font (size 1.27 1.27))))
          (number "4" (effects (font (size 1.27 1.27))))
        )
      )
    )
    (symbol "Mechanical:MountingHole" (pin_names (offset 1.016)) (in_bom yes) (on_board yes)
      (property "Reference" "H" (at 0 5.08 0)
        (effects (font (size 1.27 1.27)))
      )
      (property "Value" "MountingHole" (at 0 3.175 0)
        (effects (font (size 1.27 1.27)))
      )
      (property "Footprint" "" (at 0 0 0)
        (effects (font (size 1.27 1.27)) hide)
      )
      (property "Datasheet" "~" (at 0 0 0)
        (effects (font (size 1.27 1.27)) hide)
      )
      (property "ki_keywords" "mounting hole" (at 0 0 0)
        (effects (font (size 1.27 1.27)) hide)
      )
      (property "ki_description" "Mounting Hole without connection" (at 0 0 0)
        (effects (font (size 1.27 1.27)) hide)
      )
      (property "ki_fp_filters" "MountingHole*" (at 0 0 0)
        (effects (font (size 1.27 1.27)) hide)
      )
      (symbol "MountingHole_0_1"
        (circle (center 0 0) (radius 1.27)
          (stroke (width 1.27) (type default))
          (fill (type none))
        )
      )
    )
    (symbol "power:GND" (power) (pin_names (offset 0)) (in_bom yes) (on_board yes)
      (property "Reference" "#PWR" (at 0 -6.35 0)
        (effects (font (size 1.27 1.27)) hide)
      )
      (property "Value" "GND" (at 0 -3.81 0)
        (effects (font (size 1.27 1.27)))
      )
      (property "Footprint" "" (at 0 0 0)
        (effects (font (size 1.27 1.27)) hide)
      )
      (property "Datasheet" "" (at 0 0 0)
        (effects (font (size 1.27 1.27)) hide)
      )
      (property "ki_keywords" "global power" (at 0 0 0)
        (effects (font (size 1.27 1.27)) hide)
      )
      (property "ki_description" "Power symbol creates a global label with name \"GND\" , ground" (at 0 0 0)
        (effects (font (size 1.27 1.27)) hide)
      )
      (symbol "GND_0_1"
        (polyline
          (pts
            (xy 0 0)
            (xy 0 -1.27)
            (xy 1.27 -1.27)
            (xy 0 -2.54)
            (xy -1.27 -1.27)
            (xy 0 -1.27)
          )
          (stroke (width 0) (type default))
          (fill (type none))
        )
      )
      (symbol "GND_1_1"
        (pin power_in line (at 0 0 270) (length 0) hide
          (name "GND" (effects (font (size 1.27 1.27))))
          (number "1" (effects (font (size 1.27 1.27))))
        )
      )
    )
  )

  (junction (at 115.57 80.01) (diameter 0) (color 0 0 0 0)
    (uuid 13c9c98e-6b1d-4519-8391-1e188012e50c)
  )
  (junction (at 114.3 77.47) (diameter 0) (color 0 0 0 0)
    (uuid a7b7d8c8-c07a-4a0e-9c5f-6c8f5cac93bd)
  )
  (junction (at 113.03 74.93) (diameter 0) (color 0 0 0 0)
    (uuid c92afa77-1e57-4f04-b76a-d02723474573)
  )
  (junction (at 111.76 72.39) (diameter 0) (color 0 0 0 0)
    (uuid fc41993c-165f-4a2b-8d52-3aafad575033)
  )

  (wire (pts (xy 114.3 77.47) (xy 116.84 77.47))
    (stroke (width 0) (type default))
    (uuid 013781fa-2e07-49ac-b7bd-e565252fa452)
  )
  (wire (pts (xy 115.57 67.31) (xy 115.57 80.01))
    (stroke (width 0) (type default))
    (uuid 0b696729-27c0-4de3-b78e-61de1632b25d)
  )
  (wire (pts (xy 116.84 64.77) (xy 114.3 64.77))
    (stroke (width 0) (type default))
    (uuid 0fd7911c-e11a-468d-9820-a61ee8494c64)
  )
  (wire (pts (xy 114.3 64.77) (xy 114.3 77.47))
    (stroke (width 0) (type default))
    (uuid 1add7643-8fc4-456d-937b-f0114ea1b746)
  )
  (wire (pts (xy 102.87 77.47) (xy 114.3 77.47))
    (stroke (width 0) (type default))
    (uuid 47da0a81-47e4-483f-a92c-689c64355f86)
  )
  (wire (pts (xy 113.03 62.23) (xy 113.03 74.93))
    (stroke (width 0) (type default))
    (uuid 529cbd08-ad46-458c-a1c1-4a4c28f627df)
  )
  (wire (pts (xy 111.76 72.39) (xy 116.84 72.39))
    (stroke (width 0) (type default))
    (uuid 5e86f865-0659-4014-b91f-ed233912bc6a)
  )
  (wire (pts (xy 116.84 62.23) (xy 113.03 62.23))
    (stroke (width 0) (type default))
    (uuid 6b7643b1-1f0b-42e8-9caa-2f8831487889)
  )
  (wire (pts (xy 111.76 59.69) (xy 111.76 72.39))
    (stroke (width 0) (type default))
    (uuid 863dc5a7-d4b6-45eb-a969-721f1f6b9ef5)
  )
  (wire (pts (xy 116.84 59.69) (xy 111.76 59.69))
    (stroke (width 0) (type default))
    (uuid 8bf14573-547f-44fe-91a3-5c78b4e2b111)
  )
  (wire (pts (xy 102.87 80.01) (xy 115.57 80.01))
    (stroke (width 0) (type default))
    (uuid 95687234-a575-41a0-81f2-f71d45cc6a79)
  )
  (wire (pts (xy 102.87 72.39) (xy 111.76 72.39))
    (stroke (width 0) (type default))
    (uuid ab51bc77-4e83-4f93-b534-6544f423f5b9)
  )
  (wire (pts (xy 113.03 74.93) (xy 116.84 74.93))
    (stroke (width 0) (type default))
    (uuid b10b35d1-0906-4262-885b-604d3a824b16)
  )
  (wire (pts (xy 115.57 80.01) (xy 116.84 80.01))
    (stroke (width 0) (type default))
    (uuid dbb2a143-3b19-4b3d-861e-2e73c1775fa5)
  )
  (wire (pts (xy 102.87 74.93) (xy 113.03 74.93))
    (stroke (width 0) (type default))
    (uuid ea886020-9815-4290-b712-89e27d8a6b3c)
  )
  (wire (pts (xy 116.84 67.31) (xy 115.57 67.31))
    (stroke (width 0) (type default))
    (uuid fad1e3b7-d931-4149-b6e4-73251f6d9cc2)
  )

  (symbol (lib_id "Mechanical:MountingHole") (at 97.79 110.49 0) (unit 1)
    (in_bom yes) (on_board yes) (dnp no) (fields_autoplaced)
    (uuid 127c2cc4-5dc5-4e01-a2d4-53cfec93394e)
    (property "Reference" "H3" (at 100.33 109.855 0)
      (effects (font (size 1.27 1.27)) (justify left))
    )
    (property "Value" "MountingHole" (at 100.33 112.395 0)
      (effects (font (size 1.27 1.27)) (justify left))
    )
    (property "Footprint" "MountingHole:MountingHole_2.2mm_M2" (at 97.79 110.49 0)
      (effects (font (size 1.27 1.27)) hide)
    )
    (property "Datasheet" "~" (at 97.79 110.49 0)
      (effects (font (size 1.27 1.27)) hide)
    )
    (instances
      (project "module"
        (path "/aeb3d45f-1961-4cf4-af9e-71eeec0960f8"
          (reference "H3") (unit 1)
        )
      )
    )
  )

  (symbol (lib_id "Connector_Generic:Conn_01x04") (at 121.92 62.23 0) (unit 1)
    (in_bom yes) (on_board yes) (dnp no) (fields_autoplaced)
    (uuid 4531bf91-15c0-4bfb-ab2d-bdc643d305f9)
    (property "Reference" "J3" (at 124.46 62.865 0)
      (effects (font (size 1.27 1.27)) (justify left))
    )
    (property "Value" "Conn_01x04" (at 124.46 65.405 0)
      (effects (font (size 1.27 1.27)) (justify left))
    )
    (property "Footprint" "foodprint:Conn_01x04_P2.54_SMD" (at 121.92 62.23 0)
      (effects (font (size 1.27 1.27)) hide)
    )
    (property "Datasheet" "~" (at 121.92 62.23 0)
      (effects (font (size 1.27 1.27)) hide)
    )
    (pin "1" (uuid 7b0b7f6c-8c9b-49ce-98c2-413a8fb83236))
    (pin "2" (uuid be7d8b0b-3aa7-4631-9e67-49e7858edb35))
    (pin "3" (uuid 640f546c-1b3a-4e8f-a4c4-c669df47e340))
    (pin "4" (uuid c4866a48-3a7e-405b-b282-19c56871c666))
    (instances
      (project "module"
        (path "/aeb3d45f-1961-4cf4-af9e-71eeec0960f8"
          (reference "J3") (unit 1)
        )
      )
    )
  )

  (symbol (lib_id "Connector_Generic:Conn_01x04") (at 97.79 74.93 0) (mirror y) (unit 1)
    (in_bom yes) (on_board yes) (dnp no)
    (uuid 4ead7748-ca7a-446c-af54-ff0fffa59bf7)
    (property "Reference" "J2" (at 95.25 75.565 0)
      (effects (font (size 1.27 1.27)) (justify left))
    )
    (property "Value" "Conn_01x04" (at 95.25 78.105 0)
      (effects (font (size 1.27 1.27)) (justify left))
    )
    (property "Footprint" "foodprint:SpringPin_1x4_P2.54" (at 97.79 74.93 0)
      (effects (font (size 1.27 1.27)) hide)
    )
    (property "Datasheet" "~" (at 97.79 74.93 0)
      (effects (font (size 1.27 1.27)) hide)
    )
    (pin "1" (uuid 2c5134b5-028c-4778-9514-d7a265e75a47))
    (pin "2" (uuid 8065dd38-1b20-4555-b262-a3d7fc864072))
    (pin "3" (uuid 8a1da13a-9bc8-4f4a-b766-65d84ebdabce))
    (pin "4" (uuid 6d53d478-bbb0-4aba-a14c-908f1ff1fc79))
    (instances
      (project "module"
        (path "/aeb3d45f-1961-4cf4-af9e-71eeec0960f8"
          (reference "J2") (unit 1)
        )
      )
    )
  )

  (symbol (lib_id "Mechanical:MountingHole") (at 125.73 96.52 0) (unit 1)
    (in_bom yes) (on_board yes) (dnp no) (fields_autoplaced)
    (uuid 893ccdef-aa87-4821-a461-8ade2a64936e)
    (property "Reference" "H2" (at 128.27 95.885 0)
      (effects (font (size 1.27 1.27)) (justify left))
    )
    (property "Value" "MountingHole" (at 128.27 98.425 0)
      (effects (font (size 1.27 1.27)) (justify left))
    )
    (property "Footprint" "MountingHole:MountingHole_2.2mm_M2" (at 125.73 96.52 0)
      (effects (font (size 1.27 1.27)) hide)
    )
    (property "Datasheet" "~" (at 125.73 96.52 0)
      (effects (font (size 1.27 1.27)) hide)
    )
    (instances
      (project "module"
        (path "/aeb3d45f-1961-4cf4-af9e-71eeec0960f8"
          (reference "H2") (unit 1)
        )
      )
    )
  )

  (symbol (lib_id "power:GND") (at 115.57 80.01 0) (unit 1)
    (in_bom yes) (on_board yes) (dnp no) (fields_autoplaced)
    (uuid b09addaa-8ff9-4699-909f-6cad33a85f45)
    (property "Reference" "#PWR01" (at 115.57 86.36 0)
      (effects (font (size 1.27 1.27)) hide)
    )
    (property "Value" "GND" (at 115.57 85.09 0)
      (effects (font (size 1.27 1.27)))
    )
    (property "Footprint" "" (at 115.57 80.01 0)
      (effects (font (size 1.27 1.27)) hide)
    )
    (property "Datasheet" "" (at 115.57 80.01 0)
      (effects (font (size 1.27 1.27)) hide)
    )
    (pin "1" (uuid 20b9f885-1020-4b7c-9294-4bf50a6da40b))
    (instances
      (project "module"
        (path "/aeb3d45f-1961-4cf4-af9e-71eeec0960f8"
          (reference "#PWR01") (unit 1)
        )
      )
    )
  )

  (symbol (lib_id "Connector_Generic:Conn_01x04") (at 121.92 74.93 0) (unit 1)
    (in_bom yes) (on_board yes) (dnp no) (fields_autoplaced)
    (uuid bf7787e4-0dd2-4380-a11c-cf97e66b228b)
    (property "Reference" "J1" (at 124.46 75.565 0)
      (effects (font (size 1.27 1.27)) (justify left))
    )
    (property "Value" "Conn_01x04" (at 124.46 78.105 0)
      (effects (font (size 1.27 1.27)) (justify left))
    )
    (property "Footprint" "foodprint:Conn_01x04_P2.54_SMD" (at 121.92 74.93 0)
      (effects (font (size 1.27 1.27)) hide)
    )
    (property "Datasheet" "~" (at 121.92 74.93 0)
      (effects (font (size 1.27 1.27)) hide)
    )
    (pin "1" (uuid f3287732-270d-40a6-b7e2-d043905d4e1e))
    (pin "2" (uuid 9764c867-d60a-4402-a6f3-6d3b34e5ffa5))
    (pin "3" (uuid 78a3c94a-05ab-49ff-919d-deaa56bf4b38))
    (pin "4" (uuid 763503bc-4758-409e-a3ff-f41b756e3800))
    (instances
      (project "module"
        (path "/aeb3d45f-1961-4cf4-af9e-71eeec0960f8"
          (reference "J1") (unit 1)
        )
      )
    )
  )

  (symbol (lib_id "Mechanical:MountingHole") (at 125.73 110.49 0) (unit 1)
    (in_bom yes) (on_board yes) (dnp no) (fields_autoplaced)
    (uuid d2ca798b-c94f-4d1e-be8e-b1aaaec29be1)
    (property "Reference" "H4" (at 128.27 109.855 0)
      (effects (font (size 1.27 1.27)) (justify left))
    )
    (property "Value" "MountingHole" (at 128.27 112.395 0)
      (effects (font (size 1.27 1.27)) (justify left))
    )
    (property "Footprint" "MountingHole:MountingHole_2.2mm_M2" (at 125.73 110.49 0)
      (effects (font (size 1.27 1.27)) hide)
    )
    (property "Datasheet" "~" (at 125.73 110.49 0)
      (effects (font (size 1.27 1.27)) hide)
    )
    (instances
      (project "module"
        (path "/aeb3d45f-1961-4cf4-af9e-71eeec0960f8"
          (reference "H4") (unit 1)
        )
      )
    )
  )

  (symbol (lib_id "Mechanical:MountingHole") (at 97.79 96.52 0) (unit 1)
    (in_bom yes) (on_board yes) (dnp no) (fields_autoplaced)
    (uuid e65855c8-ed41-4cbb-9fdd-15b4938bdaab)
    (property "Reference" "H1" (at 100.33 95.885 0)
      (effects (font (size 1.27 1.27)) (justify left))
    )
    (property "Value" "MountingHole" (at 100.33 98.425 0)
      (effects (font (size 1.27 1.27)) (justify left))
    )
    (property "Footprint" "MountingHole:MountingHole_2.2mm_M2" (at 97.79 96.52 0)
      (effects (font (size 1.27 1.27)) hide)
    )
    (property "Datasheet" "~" (at 97.79 96.52 0)
      (effects (font (size 1.27 1.27)) hide)
    )
    (instances
      (project "module"
        (path "/aeb3d45f-1961-4cf4-af9e-71eeec0960f8"
          (reference "H1") (unit 1)
        )
      )
    )
  )

  (sheet_instances
    (path "/" (page "1"))
  )
)
